SKY001,與神同行,,發金光，向前衝,,,
SKY002,與神共舞,,發金光，自轉及小圈轉,,,
SKY003,方舟突擊,,發出方舟型氣勁，向前衝,,,
SKY005,箭雨,,向上射箭，箭從天上插在地上,,,
SKY006,影爆,,以自己為中心爆一個深色能量球,,,
SKY007,槍王,,從多角度攻擊前方的敵人,,,
SKY008,絕地一刀,,儲氣，橫刀一揮,,,
SKY009,破地刃,,跳起插地，地裂,,,
SKY010,生命回復,,光波圍繞，回血效果,,,
SKY011,以撒音波功,,音波功,,,
SKY012,箭雨,,向上射箭，箭從天上插在地上,,,
SKY013,箭雨,,向上射箭，箭從天上插在地上,,,
SKY014,猩紅獵殺,,從多角度攻擊前方的敵人,,,
SKY015,摔交天使,,無影撻，飄羽毛,,,
SKY016,破夢三連矢,,連發三箭，有氣勁,,,
SKY017,誡律旋風,,雙手各拿一塊石板，旋轉,,,
SKY018,蛇杖,,發出大蛇的氣勁，於前方移動,,,
SKY019,戰鼓,,攻擊力上升效果,,,
SKY020,雷殛槍,,帶電，向前飛刺,,,
SKY021,黑影爆,,以自己為中心爆一個深色能量球,,,
SKY022,愛之吻,,攻擊力上升效果,,,
SKY025,三連矢,,連發三箭，有氣勁,,,
SKY025,兵一刀,,儲氣，橫刀一揮,,,
SKY025,橫掃,,拿槍橫掃一下,,,
SKY027,堅守,,盾／金鐘罩效果,,,
SKY028,金光殺,,從多角度攻擊前方的敵人,,,
SKY029,槍環,,拿槍圍繞自身揮一圈,,,
SKY030,槍王,,從多角度攻擊前方的敵人,,,
SKY031,獅王令,,發出獅子型氣勁，向前衝,,,
SKY032,聖王槍,,金光，向前飛刺,,,
SKY033,機弦三連星,,甩出三塊石頭，發放著閃光,,,
SKY034,單刀勢,,從多角度攻擊前方的敵人,,,
SKY035,開山刀,,向前飛刺,,,
SKY036,上帝的祝福,,攻擊力上升效果,,,
SKY037,王的領域,,以自己為中心爆一個金色能量球,,,
SKY038,彎月飛擊,,發出彎月型氣勁，向前衝,,,
SKY039,巨聲破,,音波功,,,
SKY040,音速龍,,從多角度攻擊前方的敵人,,,
SKY041,生命回復,,光波圍繞，回血效果,,,
SKY042,堅守,,盾／金鐘罩效果,,,
SKY043,生命回復,,光波圍繞，回血效果,,,